\relax 
\@writefile{lof}{\contentsline {figure}{\numberline {1}{\ignorespaces Flex Inspection Tile Mapping.\relax }}{1}\protected@file@percent }
\@writefile{lot}{\contentsline {table}{\numberline {1}{\ignorespaces Image filenames and metadata for \textbf  {Flex ID: 20UPGPQ0023016}.\relax }}{2}\protected@file@percent }
